<?xml version="1.0" encoding="UTF-8"?>
<kml xmlns="http://www.opengis.net/kml/2.2" xmlns:gx="http://www.google.com/kml/ext/2.2" xmlns:kml="http://www.opengis.net/kml/2.2" xmlns:atom="http://www.w3.org/2005/Atom">
<Document>
	<name>lampeter-aberaeron.kml</name>
	<StyleMap id="msn_ylw-pushpin">
		<Pair>
			<key>normal</key>
			<styleUrl>#sn_ylw-pushpin</styleUrl>
		</Pair>
		<Pair>
			<key>highlight</key>
			<styleUrl>#sh_ylw-pushpin</styleUrl>
		</Pair>
	</StyleMap>
	<Style id="sh_ylw-stars">
		<IconStyle>
			<scale>1.3</scale>
			<Icon>
				<href>http://maps.google.com/mapfiles/kml/paddle/ylw-stars.png</href>
			</Icon>
			<hotSpot x="32" y="1" xunits="pixels" yunits="pixels"/>
		</IconStyle>
		<ListStyle>
			<ItemIcon>
				<href>http://maps.google.com/mapfiles/kml/paddle/ylw-stars-lv.png</href>
			</ItemIcon>
		</ListStyle>
	</Style>
	<Style id="sn_ylw-pushpin">
		<IconStyle>
			<scale>1.1</scale>
			<Icon>
				<href>http://maps.google.com/mapfiles/kml/pushpin/ylw-pushpin.png</href>
			</Icon>
			<hotSpot x="20" y="2" xunits="pixels" yunits="pixels"/>
		</IconStyle>
		<LineStyle>
			<color>9900ffff</color>
			<width>2</width>
		</LineStyle>
		<PolyStyle>
			<color>80b4b4b4</color>
		</PolyStyle>
	</Style>
	<StyleMap id="msn_ylw-stars">
		<Pair>
			<key>normal</key>
			<styleUrl>#sn_ylw-stars</styleUrl>
		</Pair>
		<Pair>
			<key>highlight</key>
			<styleUrl>#sh_ylw-stars</styleUrl>
		</Pair>
	</StyleMap>
	<Style id="sh_ylw-pushpin">
		<IconStyle>
			<scale>1.3</scale>
			<Icon>
				<href>http://maps.google.com/mapfiles/kml/pushpin/ylw-pushpin.png</href>
			</Icon>
			<hotSpot x="20" y="2" xunits="pixels" yunits="pixels"/>
		</IconStyle>
		<LineStyle>
			<color>9900ffff</color>
			<width>2</width>
		</LineStyle>
		<PolyStyle>
			<color>80b4b4b4</color>
		</PolyStyle>
	</Style>
	<Style id="sn_ylw-stars">
		<IconStyle>
			<scale>1.1</scale>
			<Icon>
				<href>http://maps.google.com/mapfiles/kml/paddle/ylw-stars.png</href>
			</Icon>
			<hotSpot x="32" y="1" xunits="pixels" yunits="pixels"/>
		</IconStyle>
		<ListStyle>
			<ItemIcon>
				<href>http://maps.google.com/mapfiles/kml/paddle/ylw-stars-lv.png</href>
			</ItemIcon>
		</ListStyle>
	</Style>
	<Folder>
		<name>lampeter-aberaeron</name>
		<open>1</open>
		<Placemark>
			<name>Lampeter Station</name>
			<LookAt>
				<longitude>-4.072884279534605</longitude>
				<latitude>52.11475940877676</latitude>
				<altitude>0</altitude>
				<heading>174.0863735131663</heading>
				<tilt>60.00437362940634</tilt>
				<range>471.2740228232269</range>
				<gx:altitudeMode>relativeToSeaFloor</gx:altitudeMode>
			</LookAt>
			<styleUrl>#msn_ylw-stars</styleUrl>
			<Point>
				<gx:drawOrder>1</gx:drawOrder>
				<coordinates>-4.072866675490342,52.11539845880793,0</coordinates>
			</Point>
		</Placemark>
		<Placemark>
			<name>Silian</name>
			<Camera>
				<longitude>-4.092125376804237</longitude>
				<latitude>52.12758615733825</latitude>
				<altitude>2377.058894279974</altitude>
				<heading>-0.7791339632069343</heading>
				<tilt>41.7020933232607</tilt>
				<roll>-1.892301785835989</roll>
				<gx:altitudeMode>relativeToSeaFloor</gx:altitudeMode>
			</Camera>
			<styleUrl>#msn_ylw-stars</styleUrl>
			<Point>
				<gx:drawOrder>1</gx:drawOrder>
				<coordinates>-4.090218898438691,52.14061580504393,0</coordinates>
			</Point>
		</Placemark>
		<Placemark>
			<name>Summit Halt</name>
			<Camera>
				<longitude>-4.098231763888319</longitude>
				<latitude>52.16003908491242</latitude>
				<altitude>577.5432677314603</altitude>
				<heading>-0.2678519139714882</heading>
				<tilt>54.64372540895912</tilt>
				<roll>-1.530534603386036</roll>
				<gx:altitudeMode>relativeToSeaFloor</gx:altitudeMode>
			</Camera>
			<styleUrl>#msn_ylw-stars</styleUrl>
			<Point>
				<gx:drawOrder>1</gx:drawOrder>
				<coordinates>-4.096457655383466,52.16661251428708,0</coordinates>
			</Point>
		</Placemark>
		<Placemark>
			<name>Aberaeron</name>
			<LookAt>
				<longitude>-4.257285093909311</longitude>
				<latitude>52.23735176229599</latitude>
				<altitude>0</altitude>
				<heading>142.817329077726</heading>
				<tilt>60.011986936328</tilt>
				<range>1450.801057074294</range>
				<gx:altitudeMode>relativeToSeaFloor</gx:altitudeMode>
			</LookAt>
			<styleUrl>#msn_ylw-stars</styleUrl>
			<Point>
				<gx:drawOrder>1</gx:drawOrder>
				<coordinates>-4.262199479568497,52.24092992529741,0</coordinates>
			</Point>
		</Placemark>
		<Placemark>
			<name>Llanaeron</name>
			<Camera>
				<longitude>-4.228306646198044</longitude>
				<latitude>52.20502039293464</latitude>
				<altitude>989.8044321999561</altitude>
				<heading>-0.3042174344405006</heading>
				<tilt>56.72527055225577</tilt>
				<roll>-1.481142879010857</roll>
				<gx:altitudeMode>relativeToSeaFloor</gx:altitudeMode>
			</Camera>
			<styleUrl>#msn_ylw-stars</styleUrl>
			<Point>
				<gx:drawOrder>1</gx:drawOrder>
				<coordinates>-4.224749506887559,52.21874856510775,0</coordinates>
			</Point>
		</Placemark>
		<Placemark>
			<name>Ystrad Aeron</name>
			<Camera>
				<longitude>-4.164670077693633</longitude>
				<latitude>52.1459597329662</latitude>
				<altitude>3586.302357258538</altitude>
				<heading>-0.2539270056983969</heading>
				<tilt>56.72711718318457</tilt>
				<roll>-1.483374092056005</roll>
				<gx:altitudeMode>relativeToSeaFloor</gx:altitudeMode>
			</Camera>
			<styleUrl>#msn_ylw-stars</styleUrl>
			<Point>
				<gx:drawOrder>1</gx:drawOrder>
				<coordinates>-4.15631468133382,52.18514644714609,0</coordinates>
			</Point>
		</Placemark>
		<Placemark>
			<name>Ciliau Aeron</name>
			<Camera>
				<longitude>-4.200403949185119</longitude>
				<latitude>52.18812882149911</latitude>
				<altitude>1785.874780712188</altitude>
				<heading>-0.2821653678129257</heading>
				<tilt>56.72650568916895</tilt>
				<roll>-1.481991892561185</roll>
				<gx:altitudeMode>relativeToSeaFloor</gx:altitudeMode>
			</Camera>
			<styleUrl>#msn_ylw-stars</styleUrl>
			<Point>
				<gx:drawOrder>1</gx:drawOrder>
				<coordinates>-4.194548748371351,52.2101604804797,0</coordinates>
			</Point>
		</Placemark>
		<Placemark>
			<name>Talsarn Stop</name>
			<Camera>
				<longitude>-4.13374179181566</longitude>
				<latitude>52.16554096781955</latitude>
				<altitude>1042.716374271397</altitude>
				<heading>-0.4065949727187507</heading>
				<tilt>51.21798282869887</tilt>
				<roll>-1.536164583479011</roll>
				<gx:altitudeMode>relativeToSeaFloor</gx:altitudeMode>
			</Camera>
			<styleUrl>#msn_ylw-stars</styleUrl>
			<Point>
				<gx:drawOrder>1</gx:drawOrder>
				<coordinates>-4.133123417669911,52.17265375441581,0</coordinates>
			</Point>
		</Placemark>
		<Placemark>
			<name>Aberaeron - Lampeter</name>
			<styleUrl>#msn_ylw-pushpin</styleUrl>
			<LineString>
				<tessellate>1</tessellate>
				<coordinates>
					-4.262043080643576,52.24078902222136,0 -4.256064415607732,52.23622758649245,0 -4.254530722540206,52.23493115208281,0 -4.253734737961857,52.23412624547323,0 -4.253089500715204,52.23344964575116,0 -4.252159506634719,52.23271341917106,0 -4.250816760945072,52.23165283799106,0 -4.249067727755042,52.2306273578159,0 -4.246334958854652,52.22921855032759,0 -4.244261842417534,52.22807815601283,0 -4.24253149904288,52.22681341386551,0 -4.241834189413841,52.22540048047834,0 -4.24045802490931,52.22334160762116,0 -4.23918312197019,52.22169843138984,0 -4.236410864386486,52.22083756817866,0 -4.234217340679014,52.21950069972484,0 -4.232279235313489,52.21665059259641,0 -4.227806229675215,52.21452818782883,0 -4.221976980154082,52.21477671325557,0 -4.218538997360449,52.21510749201623,0 -4.215655948655458,52.21513215710083,0 -4.2118928423778,52.21484129186605,0 -4.208083709296094,52.21426903506862,0 -4.203225070772286,52.21334259018589,0 -4.200425579638867,52.21246843195208,0 -4.19673306430444,52.21135476508391,0 -4.194541969541723,52.21044998674274,0 -4.191986539272862,52.20972083047147,0 -4.187274301441883,52.20855371742175,0 -4.182055042679254,52.20722305910084,0 -4.177541582055198,52.20558860294897,0 -4.172194669072086,52.20067250596229,0 -4.167052634909122,52.19569564611155,0 -4.163458684911657,52.19203341530818,0 -4.160109120773172,52.18937549620752,0 -4.157561176522956,52.1851719766313,0 -4.156147696439337,52.18400831589921,0 -4.15157321321449,52.18071818427454,0 -4.147823049583427,52.17605169131437,0 -4.143685291306495,52.17398233435026,0 -4.14080292112653,52.17355281220328,0 -4.137441881176733,52.1735696756358,0 -4.132953184093706,52.17254800934691,0 -4.129337433560885,52.17227624830894,0 -4.122932593841107,52.17361733558401,0 -4.118154153468769,52.17405970453692,0 -4.114607653042847,52.17406841951636,0 -4.110419709660993,52.17278547627889,0 -4.106363695351396,52.17177749983527,0 -4.101970515466999,52.1708868004571,0 -4.099066901119849,52.17042657355077,0 -4.09761609458439,52.16947726018397,0 -4.096902642392086,52.16776131012188,0 -4.096443287399033,52.16664924631008,0 -4.095759540722216,52.16525842664761,0 -4.09475470495813,52.16391687406549,0 -4.093828036670805,52.16324384594959,0 -4.092561531197349,52.16219190287907,0 -4.09119365153585,52.16118153207993,0 -4.089845635007637,52.16022873117039,0 -4.087974372703887,52.15871153727724,0 -4.086453460383143,52.15726539633626,0 -4.084660253573372,52.15574717569369,0 -4.084077805416086,52.15442406872899,0 -4.083994435379672,52.15287749052017,0 -4.083398969611508,52.15139841159734,0 -4.08223080793237,52.15055469261478,0 -4.081244453199759,52.14941872719315,0 -4.080492353441397,52.14826307288719,0 -4.080417365086142,52.14710536842165,0 -4.080213369652586,52.14581395219918,0 -4.078550271674024,52.14432222968721,0 -4.076745710494758,52.14306580905229,0 -4.075934416268129,52.14194851289764,0 -4.075012897788305,52.14017868433439,0 -4.073707121876947,52.13869059561973,0 -4.070830788240826,52.13722797802235,0 -4.068895321061331,52.13633345667316,0 -4.066722214314082,52.13564254995219,0 -4.065405380854497,52.13481473584088,0 -4.0651358361379,52.13399213732325,0 -4.065445467942766,52.13339434942436,0 -4.067868955733823,52.1313045807946,0 -4.074156480736779,52.12514018938543,0 -4.072871253421946,52.11649335094155,0 -4.072628549853094,52.11509867974557,0 
				</coordinates>
			</LineString>
		</Placemark>
	</Folder>
</Document>
</kml>
